<?xml version="1.0" encoding="utf-8"?>
<!-- Generator: Adobe Illustrator 19.0.0, SVG Export Plug-In . SVG Version: 6.00 Build 0)  -->
<svg version="1.1" xmlns="http://www.w3.org/2000/svg" xmlns:xlink="http://www.w3.org/1999/xlink" x="0px" y="0px"
	 viewBox="0 0 283.11 195.49" style="enable-background:new 0 0 283.11 195.49;" xml:space="preserve">
<style type="text/css">
	.st0{fill-rule:evenodd;clip-rule:evenodd;fill:none;stroke:url(#SVGID_1_);stroke-width:4;stroke-miterlimit:10;}
	.st1{fill-rule:evenodd;clip-rule:evenodd;fill:none;stroke:url(#SVGID_2_);stroke-width:4;stroke-miterlimit:10;}
	.st2{fill-rule:evenodd;clip-rule:evenodd;fill:none;stroke:url(#SVGID_3_);stroke-width:4;stroke-miterlimit:10;}
	.st3{display:none;}
	
		.st4{display:inline;fill-rule:evenodd;clip-rule:evenodd;fill:none;stroke:#0BADE4;stroke-width:4;stroke-linejoin:round;stroke-miterlimit:10;}
	.st5{display:inline;fill-rule:evenodd;clip-rule:evenodd;fill:none;stroke:#51C2E8;stroke-width:4;stroke-miterlimit:10;}
	.st6{display:inline;fill-rule:evenodd;clip-rule:evenodd;fill:none;stroke:url(#SVGID_4_);stroke-width:4;stroke-miterlimit:10;}
	.st7{display:inline;fill-rule:evenodd;clip-rule:evenodd;fill:none;stroke:url(#SVGID_5_);stroke-width:5;stroke-miterlimit:10;}
	.st8{display:inline;fill-rule:evenodd;clip-rule:evenodd;fill:none;stroke:url(#SVGID_6_);stroke-width:5;stroke-miterlimit:10;}
	.st9{display:inline;fill-rule:evenodd;clip-rule:evenodd;fill:none;stroke:url(#SVGID_7_);stroke-width:5;stroke-miterlimit:10;}
</style>
<g id="Layer_1">
	<linearGradient id="SVGID_1_" gradientUnits="userSpaceOnUse" x1="17.6067" y1="53.8764" x2="52.2697" y2="53.8764">
		<stop  offset="0" style="stop-color:#3AF08C"/>
		<stop  offset="1" style="stop-color:#00CF7A"/>
	</linearGradient>
	<path class="st0" d="M19.59,78.14c2.62-20.26,14.76-37.41,31.69-47.04"/>
	<g>
		<linearGradient id="SVGID_2_" gradientUnits="userSpaceOnUse" x1="80.4116" y1="193.3059" x2="80.4116" y2="3.4146">
			<stop  offset="0" style="stop-color:#3AF08C"/>
			<stop  offset="1" style="stop-color:#00CF7A"/>
		</linearGradient>
		<path class="st1" d="M122.01,100.11c0-27.41,14.21-51.53,35.75-65.59c-16.37-17.88-39.99-29.1-66.24-29.1
			C42.08,5.41,2,45.21,2,94.31c0,20.22,6.81,38.85,18.26,53.79l-3.09,42.48l43.71-12.72c9.56,3.46,19.87,5.35,30.64,5.35
			c22.82,0,43.64-8.49,59.45-22.46C133.28,146.34,122.01,124.52,122.01,100.11z"/>
		<linearGradient id="SVGID_3_" gradientUnits="userSpaceOnUse" x1="216.4074" y1="187.9542" x2="216.4074" y2="19.5231">
			<stop  offset="0" style="stop-color:#3AF08C"/>
			<stop  offset="1" style="stop-color:#00CF7A"/>
		</linearGradient>
		<path class="st2" d="M150.96,160.75c13.75,11.21,31.38,17.94,50.6,17.94c9.55,0,18.71-1.67,27.19-4.72l38.87,11.26l-2.74-37.58
			c10.18-13.2,16.23-29.68,16.23-47.55c0-43.4-35.62-78.58-79.55-78.58c-16.19,0-31.24,4.79-43.8,12.99"/>
	</g>
</g>
<g id="Layer_2" class="st3">
	<path class="st4" d="M164.74,2.41v61.2h51.01"/>
	<path class="st5" d="M97.55,151.29c29.21,0,48.67,0,82,0"/>
	<path class="st5" d="M97.55,121.29c29.21,0,48.67,0,82,0"/>
	<path class="st5" d="M97.55,91.29c29.21,0,48.67,0,82,0"/>
	<path class="st5" d="M97.55,59.29c18.53,0,20.87,0,42,0"/>
	<linearGradient id="SVGID_4_" gradientUnits="userSpaceOnUse" x1="140.5574" y1="1.0924" x2="140.5574" y2="195.4873">
		<stop  offset="0" style="stop-color:#0BADE4"/>
		<stop  offset="1" style="stop-color:#5ACAF4"/>
	</linearGradient>
	<path class="st6" d="M215.75,64.9l-0.23,118.74c0,5.44-4.44,9.85-9.92,9.85H75.28c-5.48,0-9.92-4.41-9.92-9.85V12.94
		c0-5.44,4.44-9.85,9.92-9.85h89.6L215.75,64.9z"/>
</g>
<g id="Layer_3" class="st3">
	<linearGradient id="SVGID_5_" gradientUnits="userSpaceOnUse" x1="124.2974" y1="3" x2="124.2974" y2="165.1899">
		<stop  offset="0" style="stop-color:#05AFE7"/>
		<stop  offset="1" style="stop-color:#4AD2FF"/>
	</linearGradient>
	<path class="st7" d="M45.06,84.09c0-43.41,35.47-78.59,79.23-78.59c43.76,0,79.23,35.19,79.23,78.59c0,43.41-35.47,78.6-79.23,78.6
		C80.54,162.69,45.06,127.5,45.06,84.09z"/>
	<linearGradient id="SVGID_6_" gradientUnits="userSpaceOnUse" x1="202.7315" y1="129.8337" x2="202.7315" y2="192.9962">
		<stop  offset="0" style="stop-color:#4AD2FF"/>
		<stop  offset="1" style="stop-color:#4AD2FF"/>
	</linearGradient>
	<path class="st8" d="M179.62,140.19c4.33-4.3,7.67-9.56,10.02-7.32l39.15,38.86c4.33,4.29,4.33,11.26,0,15.55
		c-4.33,4.29-11.35,4.29-15.68,0l-39.15-38.86C172.1,146.38,175.29,144.48,179.62,140.19z"/>
	<linearGradient id="SVGID_7_" gradientUnits="userSpaceOnUse" x1="76.5467" y1="29.4573" x2="76.5467" y2="78.703">
		<stop  offset="0" style="stop-color:#05AFE7"/>
		<stop  offset="1" style="stop-color:#4AD2FF"/>
	</linearGradient>
	<path class="st9" d="M62.4,78.46c1.95-19.86,13.27-36.97,29.48-46.87"/>
</g>
</svg>
